<svg xmlns="http://www.w3.org/2000/svg" width="18" height="18" viewBox="0 0 18 18">
  <g id="Icon_feather-printer" data-name="Icon feather-printer" transform="translate(1 1)">
    <path id="Trazado_650" data-name="Trazado 650" d="M9,8.6V3h9.6V8.6" transform="translate(-5.799 -3)" fill="none" stroke="#3fb7f6" stroke-linecap="round" stroke-linejoin="round" stroke-width="2"/>
    <path id="Trazado_651" data-name="Trazado 651" d="M6.2,20.7H4.6A1.6,1.6,0,0,1,3,19.1v-4a1.6,1.6,0,0,1,1.6-1.6H17.4A1.6,1.6,0,0,1,19,15.1v4a1.6,1.6,0,0,1-1.6,1.6H15.8" transform="translate(-3 -7.902)" fill="none" stroke="#3fb7f6" stroke-linecap="round" stroke-linejoin="round" stroke-width="2"/>
    <path id="Trazado_652" data-name="Trazado 652" d="M9,21h9.6v6.4H9Z" transform="translate(-5.799 -11.403)" fill="none" stroke="#3fb7f6" stroke-linecap="round" stroke-linejoin="round" stroke-width="2"/>
  </g>
</svg>
