<svg xmlns="http://www.w3.org/2000/svg" width="66.943" height="94.046" viewBox="0 0 66.943 94.046">
  <g id="Grupo_114" data-name="Grupo 114" transform="translate(0 0)">
    <path id="Trazado_511" data-name="Trazado 511" d="M3342.57,4564.582a5.69,5.69,0,0,0,2.788-6.4,4.683,4.683,0,0,0-3.221-3.34l.024-8.235c.1-11.948-9.927-21.714-22.354-21.807s-22.594,9.536-22.691,21.48v.186l.193,7.052h0l.024,1.347a4.632,4.632,0,0,0-3.149,3.34,5.77,5.77,0,0,0,3.365,6.7l-6.274,22.988a1.177,1.177,0,0,0,.866,1.439h.024a36.773,36.773,0,0,0,5.048.765,1.2,1.2,0,0,0,1.01-.37l3.75-3.851.168,3.039a1.177,1.177,0,0,0,1.2,1.113c.6,0,1.25.023,1.923.045.841.023,1.731.07,2.62.07V4587.8c-.865,0-1.707-.022-2.548-.068-.288,0-.577-.024-.865-.024l-.265-4.64a1.14,1.14,0,0,0-.745-1.044,1.248,1.248,0,0,0-1.346.279l-5.264,5.4c-1.227-.139-2.211-.3-2.933-.417l4.808-17.585a21.364,21.364,0,0,0,4.928,8.771,19.06,19.06,0,0,0,14.037,6.309h3.8a19.526,19.526,0,0,0,14.23-6.309,21.631,21.631,0,0,0,5.215-9.627l3.943,18.349-3.1.372-4.927-4.292a1.307,1.307,0,0,0-.937-.347,1.283,1.283,0,0,0-.889.416l-4.231,4.987,1.9,1.486,3.414-4.037,4.447,3.874a1.324,1.324,0,0,0,.961.3l4.952-.58a1.184,1.184,0,0,0,1.033-.788,1.042,1.042,0,0,0,.024-.6Zm-2.86-12.9a19.473,19.473,0,0,1-5.817-2.923h5.841Zm0-5.267h-39.974c0-.533.024-1.044.072-1.555h39.829c.048.511.073,1.044.073,1.555Zm-23.268,2.343a32.852,32.852,0,0,1-10.071,1.81h-.073a3.666,3.666,0,0,0-2.981,2.157,1.892,1.892,0,0,1-.937.881,2.07,2.07,0,0,1-2.283-.372l-.289-.278-.025-4.2h16.658Zm13.773,0a20.523,20.523,0,0,0,7.139,4.593,24.623,24.623,0,0,1-11.466-4.593Zm-10.5-21.574a19.837,19.837,0,0,1,19.566,15.312h-39.132A19.9,19.9,0,0,1,3319.711,4527.187Zm-23.316,32.338a3.256,3.256,0,0,1,.1-.834,2.414,2.414,0,0,1,2.187-1.765,1.187,1.187,0,0,0,1.1-1.089,4.522,4.522,0,0,0,5.673-2.087,1.456,1.456,0,0,1,.914-.835h.072c3.293-.186,9.35-.511,15.359-4.153h.336a27.119,27.119,0,0,0,17.547,7.145,1.229,1.229,0,0,0,1.082,1.02,2.362,2.362,0,0,1,2.163,1.765,3.475,3.475,0,0,1-2.644,4.2c-.072.024-.144.024-.217.047a1.2,1.2,0,0,0-1.033,1.16v.023q0,.8-.072,1.6l-14.326,2.552a28.258,28.258,0,0,1-9.879,0l-14.35-2.552q-.072-.8-.072-1.6v-.023a1.184,1.184,0,0,0-1.01-1.16,3.48,3.48,0,0,1-2.932-3.41Zm37.546,17.353a16.882,16.882,0,0,1-12.379,5.543h-3.7a16.964,16.964,0,0,1-12.379-5.543,19.067,19.067,0,0,1-4.638-8.63l13.484,2.413a30.01,30.01,0,0,0,10.77,0l13.459-2.413A18.785,18.785,0,0,1,3333.941,4576.877Z" transform="translate(-3286.123 -4524.797)" fill="#00395e"/>
    <g id="Grupo_113" data-name="Grupo 113" transform="translate(0 61.082)">
      <path id="Trazado_512" data-name="Trazado 512" d="M3427.175,4879.5h-1.9a1.2,1.2,0,0,0-1.207,1.021,1.166,1.166,0,0,0,1.16,1.322h1.9a1.2,1.2,0,0,0,1.207-1.021A1.167,1.167,0,0,0,3427.175,4879.5Z" transform="translate(-3386.969 -4855.537)" fill="#3fb7f6"/>
      <path id="Trazado_513" data-name="Trazado 513" d="M3328.495,4785.525l-16.132-5.312V4776.2l-2.414.788v3.551l-7.266,7.028-7.265-7.028v-3.551L3293,4776.2v4.013l-16.132,5.313a10.987,10.987,0,0,0-7.672,10.37v12.086a1.207,1.207,0,0,0,1.219,1.183h64.5a1.206,1.206,0,0,0,1.219-1.183V4795.9A10.934,10.934,0,0,0,3328.495,4785.525Zm-11.854-1.46-12.739,12.016v-6.356l7.6-7.354Zm-22.705-1.694,7.552,7.308v6.355l-12.691-11.969Zm-22.275,13.524a8.609,8.609,0,0,1,6.023-8.143l8.532-2.807,15.272,14.406v7.47h-29.827Zm62.092,10.9h-29.827v-7.423l15.3-14.453,8.532,2.808a8.608,8.608,0,0,1,6.023,8.142V4806.8Z" transform="translate(-3269.2 -4776.2)" fill="#3fb7f6"/>
    </g>
  </g>
</svg>
