<svg id="Grupo_180" data-name="Grupo 180" xmlns="http://www.w3.org/2000/svg" width="75.181" height="97.881" viewBox="0 0 75.181 97.881">
  <path id="Trazado_245" data-name="Trazado 245" d="M7949.814,1070.476a25.243,25.243,0,0,1,7.638-3.466,21.838,21.838,0,0,1,8.347-.754c-3.608-2.146-8.347-2.57-13.839-1.061a25.531,25.531,0,0,0-7.64,3.466,44.091,44.091,0,0,1-4.22,2.381,21.256,21.256,0,0,0,5.824,1.674c1.343-.707,2.64-1.438,3.89-2.24Z" transform="translate(-7900.351 -1042.032)" fill="#d5e9f3"/>
  <path id="Trazado_246" data-name="Trazado 246" d="M7959.983,1251.1c-.754-8.842-3.042-15.7-6.791-20.394a5.411,5.411,0,0,0-4.221-2,5.67,5.67,0,0,0-1.272.141l.023.023c3.749,4.692,6.037,11.553,6.791,20.394a66.715,66.715,0,0,1,0,11.859.143.143,0,0,1-.023.094,1.6,1.6,0,0,0,1.272,1.91,1.534,1.534,0,0,0,.919-.094,2.051,2.051,0,0,0,.686-.33,17.71,17.71,0,0,0,2.852-4.008,67.872,67.872,0,0,0-.236-7.592Z" transform="translate(-7906.159 -1167.672)" fill="#d5e9f3"/>
  <path id="Trazado_247" data-name="Trazado 247" d="M7803.529,1136.829a.794.794,0,0,0-.022-.189c-3.608-6.484-4.409-15.985-3.82-23.577q.071-.99.142-1.839c.306-3.654.5-5.871-.755-7.875-1.179-1.933-3.608-3.442-8.275-5.894-2.569-1.367-4.526-4.079-5.518-7.686a20.082,20.082,0,0,1,.236-11.129,15.2,15.2,0,0,1,6.036-8.252c3.277-2.169,7.427-2.924,12.331-2.287.166.023.354.047.519.071a22.969,22.969,0,0,0-6.012-1.91c-4.9-.66-9.053.118-12.332,2.287a15.433,15.433,0,0,0-6.034,8.252,19.829,19.829,0,0,0-.235,11.129c.989,3.584,2.947,6.319,5.517,7.686,4.667,2.476,7.1,3.985,8.274,5.894,1.226,2,1.062,4.2.755,7.875q-.073.849-.142,1.839c-.708,9.2.636,21.173,6.459,27.208a2.646,2.646,0,0,0,.683.33,1.652,1.652,0,0,0,2.123-.9,1.731,1.731,0,0,0,.093-.92c0-.071,0-.094-.023-.118Z" transform="translate(-7777.314 -1043.358)" fill="#d5e9f3"/>
  <path id="Trazado_248" data-name="Trazado 248" d="M7839.363,1090.128c3.3-1.745,5.706-5.329,6.767-10.068a23.683,23.683,0,0,0-.99-13.557,16.387,16.387,0,0,0-7.758-8.842c-4.03-2.028-8.934-2.287-14.57-.754a27.437,27.437,0,0,0-8.206,3.725,36.662,36.662,0,0,1-5.375,2.853.959.959,0,0,0-.212.118c-.542-.283-1.178-.66-1.908-1.084-3.632-2.1-9.15-5.281-13.817-5.894-10.162-1.344-17.918,3.16-20.748,12.072-2.735,8.535.142,18.155,6.365,21.455,4.174,2.217,6.459,3.608,7.38,5.069.825,1.344.684,3.159.4,6.437-.023.354-.071.731-.094,1.132l-2.381-1.745a17.32,17.32,0,0,0-10.327-3.4,1.2,1.2,0,0,0,0,2.4,14.951,14.951,0,0,1,8.914,2.924l3.606,2.664c-.235,6.248.167,19.5,7.191,26.76a3.934,3.934,0,0,0,1.581.9,4.182,4.182,0,0,0,1.32.212,3.873,3.873,0,0,0,3.937-3.82,4.109,4.109,0,0,0-.07-.754c-.094-1.038-1.839-20.394,6.413-30.438a3.16,3.16,0,0,1,4.432-.377,3.2,3.2,0,0,1,.4.4c8.087,10.091,6.389,29.4,6.3,30.415a3.919,3.919,0,0,0,.258,2.264,3.992,3.992,0,0,0,4.929,2.1,4.1,4.1,0,0,0,1.579-.9c7.05-7.286,7.45-20.56,7.191-26.784l2.97-2.334a15.1,15.1,0,0,1,9.291-3.207,1.2,1.2,0,0,0,0-2.4,17.51,17.51,0,0,0-10.775,3.725l-1.674,1.32c-.024-.354-.048-.707-.1-1.014-.282-3.277-.423-5.093.4-6.437.9-1.532,3.183-2.924,7.38-5.14Zm-10.162,11.718c.049.566.094,1.179.141,1.815.708,9.148-.612,21.031-6.412,27.02a2.273,2.273,0,0,1-.638.307,1.582,1.582,0,0,1-1.956-.778,1.52,1.52,0,0,1-.093-.919.148.148,0,0,1,.022-.094,70.961,70.961,0,0,0,0-11.836c-.754-8.842-3.042-15.7-6.79-20.371a5.533,5.533,0,0,0-7.781-.778,5.61,5.61,0,0,0-.755.731c-9.053,11.034-7.024,31.381-6.954,32.254a.147.147,0,0,0,.022.094,1.531,1.531,0,0,1-.093.919,1.561,1.561,0,0,1-1.958.778,2,2,0,0,1-.637-.307c-5.8-5.989-7.121-17.9-6.413-27.02.045-.66.093-1.249.141-1.815.636-7.663.354-8.842-9.031-13.817-2.521-1.344-4.478-4.032-5.445-7.592a19.95,19.95,0,0,1,.236-11.034c1.178-3.7,5.327-12.142,18.178-10.421,4.2.566,9.455,3.584,12.919,5.588,1.039.613,1.957,1.132,2.619,1.462,6.742,3.348,10.562,3.136,12.847,2.688a1.188,1.188,0,1,0-.447-2.334c-2.568.5-5.492.047-9.077-1.462a41.754,41.754,0,0,0,4.008-2.264,25.075,25.075,0,0,1,7.569-3.442c9.313-2.546,16.435.448,19.474,8.181a21.323,21.323,0,0,1,.9,12.166c-.9,3.984-2.925,7.1-5.565,8.488-9.407,4.951-9.667,6.13-9.03,13.793Z" transform="translate(-7771.51 -1035.631)" fill="#00395e"/>
  <g id="Grupo_45" data-name="Grupo 45" transform="translate(8.261)">
    <path id="Trazado_249" data-name="Trazado 249" d="M7925.682,978.472v-7.38a1.224,1.224,0,0,0-1.038-1.226,1.186,1.186,0,0,0-1.345,1.179v7.474a1.186,1.186,0,0,0,1.345,1.179A1.224,1.224,0,0,0,7925.682,978.472Z" transform="translate(-7895.772 -969.856)" fill="#3fb7f6"/>
    <path id="Trazado_250" data-name="Trazado 250" d="M8017.461,986.782a1.131,1.131,0,0,0,.943-.472l6.814-8.841a1.182,1.182,0,0,0-.236-1.674,1.2,1.2,0,0,0-1.674.212l-6.813,8.842a1.2,1.2,0,0,0,.212,1.674A1.216,1.216,0,0,0,8017.461,986.782Z" transform="translate(-7966.805 -974.205)" fill="#3fb7f6"/>
    <path id="Trazado_251" data-name="Trazado 251" d="M7814.553,986.782a1.191,1.191,0,0,0,.943-1.933l-6.814-8.841a1.193,1.193,0,0,0-1.887,1.462l6.815,8.841A1.127,1.127,0,0,0,7814.553,986.782Z" transform="translate(-7806.547 -974.205)" fill="#3fb7f6"/>
    <path id="Trazado_252" data-name="Trazado 252" d="M7849.934,1073.588l1.416,1.58c2.734,3.065,8.063,2.358,9.6-2.429a2.032,2.032,0,0,0,.069-.518l-.047-5.211a.362.362,0,0,0-.354-.354h-1.649a.363.363,0,0,0-.354.354v.849l.023,3.513a3.206,3.206,0,0,1-5.588,2.193l-1.414-1.579a4.191,4.191,0,0,0-5.942-.306,4.563,4.563,0,0,0-.636.707.435.435,0,0,1-.33.188l-1.887.071a1.36,1.36,0,0,1-1.391-1.3v-.023l-.07-2.688a3.719,3.719,0,0,0-3.8-3.654,2.181,2.181,0,0,0-.682.094.329.329,0,0,1-.214,0,1.468,1.468,0,0,1-.99-1.815l1.463-4.338a.316.316,0,0,0-.025-.259,1.239,1.239,0,0,0-2.357-.094l-1.319,3.938a3.764,3.764,0,0,0,3.7,4.975,1,1,0,0,0,.258-.047,1.375,1.375,0,0,1,1.6,1.132c0,.047.021.118.021.165l.119,4.6a1.089,1.089,0,0,0,.755,1.037,8.778,8.778,0,0,0,3.041.707l1.438-.047a3.731,3.731,0,0,0,2.711-1.344,1.818,1.818,0,0,1,2.594-.236.333.333,0,0,1,.235.141Z" transform="translate(-7826.959 -1037.033)" fill="#3fb7f6"/>
  </g>
</svg>
